<svg xmlns="http://www.w3.org/2000/svg" width="16" height="16" viewBox="0 0 16 16">
  <path fill="#FF151F" fill-rule="evenodd" d="M8,0 L16,16 L0,16 L8,0 Z M9,14 L9,9.2 L7,9.2 L7,14 L9,14 Z M9,8 L9,6 L7,6 L7,8 L9,8 Z"/>
</svg>
