<?xml version="1.0" encoding="UTF-8"?>
<svg width="20px" height="24px" viewBox="0 0 20 24" version="1.1" xmlns="http://www.w3.org/2000/svg" xmlns:xlink="http://www.w3.org/1999/xlink">
    <!-- Generator: Sketch 52.2 (67145) - http://www.bohemiancoding.com/sketch -->
    <title>Icon</title>
    <desc>Created with Sketch.</desc>
    <g id="21-st-Nov" stroke="none" stroke-width="1" fill="none" fill-rule="evenodd" fill-opacity="0.487715127">
        <g id="Jupiter_On-boarding_06_identity_Company_info" transform="translate(-1231.000000, -2290.000000)" fill="#82879E">
            <g id="Group-7" transform="translate(645.000000, 2266.000000)">
                <g id="Icon" transform="translate(586.000000, 24.000000)">
                    <path d="M1.37142857,21.3333333 C1.37142857,22.8 2.60571429,24 4.11428571,24 L15.0857143,24 C16.5942857,24 17.8285714,22.8 17.8285714,21.3333333 L17.8285714,5.33333333 L1.37142857,5.33333333 L1.37142857,21.3333333 L1.37142857,21.3333333 Z M19.2,1.33333333 L14.4,1.33333333 L13.0285714,0 L6.17142857,0 L4.8,1.33333333 L0,1.33333333 L0,4 L19.2,4 L19.2,1.33333333 L19.2,1.33333333 Z"></path>
                </g>
            </g>
        </g>
    </g>
</svg>